1988,variable,,"Slim Straw Set",1,0,visible,"<span data-sheets-value=""{&quot;1&quot;:2,&quot;2&quot;:&quot;The Slim Set comes with one slim metal straw in a color of your choice. It comes with a cleaning brush and in a dishwashing and detergent safe pouch. Each pouch also has an additional pocket to store your used utensils before washing at home. It's designed to be sleek and easy to bring, so you always have the choice to be less wasteful.nnn&quot;}"" data-sheets-userformat=""{&quot;2&quot;:8961,&quot;3&quot;:[null,0],&quot;11&quot;:4,&quot;12&quot;:0,&quot;16&quot;:8}"">The Slim Set comes with one slim metal straw in a color of your choice. It comes with a cleaning brush and in a dishwashing and detergent safe pouch. Each pouch also has an additional pocket to store your used utensils before washing at home. It's designed to be sleek and easy to bring, so you always have the choice to be less wasteful.</span>
<div style=""color: #fff; background-color: red; padding: 10px; margin-bottom: 30px; text-align: center;"">This product is currently out of stock. We are accepting pre-orders to be delivered by August 15, 2018. Use the coupon code ""MakeItAHabit"" to avail of FREE SHIPPING for the first 100 customers in Metro Manila.</div>","<strong>Set includes:</strong>

1 pc. Slim Straw ? 6 mm diameter x 21.5 cm height, food-grade stainless steel 304
1 pc. cleaning brush,?food-grade stainless steel 304 stem with nylon bristles
1 pc. pouch ? dishwashing and laundry safe

<strong>You can opt not to buy, and instead, use:</strong>

1. No straw
2. Bamboo straw - lifetime of approximately 3 months, dries slower",,,taxable,,1,200,1,0,0.02,7,0.9,24.5,0,,,,"Reusables, Reusables > Straws",,"Small Pouch","https://www.habit.ph/wp-content/uploads/2018/05/habit-slimstrawset-black-edited-1.jpg, https://www.habit.ph/wp-content/uploads/2018/05/habit-slim-combined.jpg, https://www.habit.ph/wp-content/uploads/2018/05/habit-pouches.jpg",,,,,,,,,6,Color,"Black, Gold, Rose Gold, Silver, Spectrum",1,1,Pouch,"Black, Blue, Green, Orange, Pink, Red",1,1,,,,,
2214,variable,,"Collapsible Cup",1,0,visible,"Collapsible cup that you can bring with you anywhere, easy to rinse and made of 100% food-grade silicone

<div style=""color: #fff; background-color: red; padding: 10px; margin-bottom: 30px; text-align: center;"">This product is currently out of stock. We are accepting pre-orders to be delivered by August 15, 2018. Use the coupon code ""MakeItAHabit"" to avail of FREE SHIPPING for the first 100 customers in Metro Manila.</div>","<strong>Product Specifications:</strong>

1 pc. collapsible cup (355 mL/12 oz)
<ul>
 	<li>9 cm diameter x 13.5 cm height</li>
 	<li>Temperature limits: -40 to 70 ?C</li>
 	<li>BPA-free</li>
 	<li>100% food-grade silicone</li>
</ul>
<strong>You can opt not to buy, and instead, use:</strong>

<span data-sheets-value=""{&quot;1&quot;:2,&quot;2&quot;:&quot;Normal cup or tumbler you already own&quot;}"" data-sheets-userformat=""{&quot;2&quot;:9097,&quot;3&quot;:[null,0],&quot;6&quot;:{&quot;1&quot;:[{&quot;1&quot;:2,&quot;2&quot;:0,&quot;5&quot;:[null,2,0]},{&quot;1&quot;:0,&quot;2&quot;:0,&quot;3&quot;:3},{&quot;1&quot;:1,&quot;2&quot;:0,&quot;4&quot;:3}]},&quot;10&quot;:1,&quot;11&quot;:4,&quot;12&quot;:0,&quot;16&quot;:8}"">Normal cup or tumbler you already own</span>",,,taxable,,backorder,0,1,0,0.1,9,9,13.5,0,,,,"Reusables > Cups\, Mugs\, Tumblers, Reusables",,"Small Pouch","https://www.habit.ph/wp-content/uploads/2018/06/habit-collapsiblecup-red-edited.png, https://www.habit.ph/wp-content/uploads/2018/06/habit-collapsiblecup-orange-edited.png, https://www.habit.ph/wp-content/uploads/2018/06/habit-collapsiblecup-pink-edited.png, https://www.habit.ph/wp-content/uploads/2018/06/habit-collapsiblecup-green-edited.png, https://www.habit.ph/wp-content/uploads/2018/06/habit-collapsiblecup-blue-edited.png, https://www.habit.ph/wp-content/uploads/2018/06/habit-collapsiblecup-black-edited.png",,,,,,,,,3,Color,"Black, Blue, Green, Orange, Pink, Red",1,1,,,,,,,,,
2215,variable,,"Cotton Squares",1,0,visible,"Washable cotton squares that are easy on the skin, made with 100% cotton fabric","<strong>Technical Description:</strong>

White 100% cotton fabric, 6.35cm diameter, 14 or 10 pc set

<strong>You can opt not to buy, and instead, use:</strong>

1. No cotton squares for skincare
2. Regular store-bought cotton squares - has plastic packaging that can't be recycled in the Philippines",,,taxable,,1,24,0,1,0.02,6.35,6.35,6.35,0,,,,"Reusables, Reusables > Skin Care",,"Small Pouch",https://www.habit.ph/wp-content/uploads/2018/06/habit-cottonsquares.jpg,,,,,,,,,4,"Set Quantity","10 pcs, 14 pcs",1,1,,,,,"10 pcs",,,,
2216,variable,,"Habit Wrap",1,0,visible,"<span data-sheets-value=""{&quot;1&quot;:2,&quot;2&quot;:&quot;Food wraps in 3 sizes to repace foil or cling wrap. You can wash these with detergent or dishwashing liquid.&quot;}"" data-sheets-userformat=""{&quot;2&quot;:9097,&quot;3&quot;:[null,0],&quot;6&quot;:{&quot;1&quot;:[{&quot;1&quot;:2,&quot;2&quot;:0,&quot;5&quot;:[null,2,0]},{&quot;1&quot;:0,&quot;2&quot;:0,&quot;3&quot;:3},{&quot;1&quot;:1,&quot;2&quot;:0,&quot;4&quot;:3}]},&quot;10&quot;:1,&quot;11&quot;:4,&quot;12&quot;:0,&quot;16&quot;:8}"">Food wraps in 3 sizes to replace foil or cling wrap. You can wash these with detergent or dishwashing liquid.</span>","<strong>Product Specifications:</strong>

3 pcs. nylon and silverback taffeta in 3 sizes (S - 20 cm, M - 30 cm, L - 38 cm), with garter or string fastener. Do not use to wrap containers with boiling or hot substances above 60 ?C.

<strong>You can opt not to buy, and instead, use, in order of reusability:</strong>
1. Regular food containers

2. Beeswax wraps - if used and washed regularly, has a lifetime of approximately 6 months",,,taxable,,1,498,1,0,0.04,38,38,38,0,,,,"Reusables > Kitchenware, Reusables",,"Small Pouch","https://www.habit.ph/wp-content/uploads/2018/06/habit-wraps-blue.jpg, https://www.habit.ph/wp-content/uploads/2018/06/habit-wraps-black.jpg, https://www.habit.ph/wp-content/uploads/2018/06/habit-wraps-green.jpg, https://www.habit.ph/wp-content/uploads/2018/06/habit-wraps-orange.jpg, https://www.habit.ph/wp-content/uploads/2018/06/habit-wraps-pink.jpg, https://www.habit.ph/wp-content/uploads/2018/06/habit-wraps-red.jpg",,,,,,,,,2,Color,"Black, Blue, Green, Orange, Pink, Red",1,1,Size,"L, M, S",1,1,,Fastener,"Garter, String",1,1
2229,variation,H-COT10,"Cotton Squares - 10 pcs",1,0,visible,,,,,taxable,parent,1,10,0,1,,,,,0,,,180,,,,,,,id:2215,,,,,,0,"Set Quantity","10 pcs",,1,,,,,,,,,
2230,variation,H-COT14,"Cotton Squares - 14 pcs",1,0,visible,,,,,taxable,parent,1,10,0,1,,,,,0,,,220,,,,,,,id:2215,,,,,,0,"Set Quantity","14 pcs",,1,,,,,,,,,
2233,variation,H-CC-BLK,"Collapsible Cup - Black",1,0,visible,,,,,taxable,parent,backorder,'-14',1,0,,,,,0,,,300,,,,https://www.habit.ph/wp-content/uploads/2018/06/habit-collapsiblecup-black-edited.png,,,id:2214,,,,,,1,Color,Black,,1,,,,,,,,,
2234,variation,H-CC-BLU,"Collapsible Cup - Blue",1,0,visible,,,,,taxable,parent,backorder,'-4',1,0,,,,,0,,,300,,,,https://www.habit.ph/wp-content/uploads/2018/06/habit-collapsiblecup-blue-edited.png,,,id:2214,,,,,,2,Color,Blue,,1,,,,,,,,,
2235,variation,H-CC-GRN,"Collapsible Cup - Green",1,0,visible,,,,,taxable,parent,backorder,'-9',1,0,,,,,0,,,300,,,,https://www.habit.ph/wp-content/uploads/2018/06/habit-collapsiblecup-green-edited.png,,,id:2214,,,,,,3,Color,Green,,1,,,,,,,,,
2236,variation,H-CC-PNK,"Collapsible Cup - Pink",1,0,visible,,,,,taxable,parent,backorder,'-11',1,0,,,,,0,,,300,,,,https://www.habit.ph/wp-content/uploads/2018/06/habit-collapsiblecup-pink-edited.png,,,id:2214,,,,,,4,Color,Pink,,1,,,,,,,,,
2237,variation,H-CC-ORG,"Collapsible Cup - Orange",1,0,visible,,,,,taxable,parent,backorder,'-4',1,0,,,,,0,,,300,,,,https://www.habit.ph/wp-content/uploads/2018/06/habit-collapsiblecup-orange-edited.png,,,id:2214,,,,,,5,Color,Orange,,1,,,,,,,,,
2238,variation,H-CC-RED,"Collapsible Cup - Red",1,0,visible,,,,,taxable,parent,backorder,'-5',1,0,,,,,0,,,300,,,,https://www.habit.ph/wp-content/uploads/2018/06/habit-collapsiblecup-red-edited.png,,,id:2214,,,,,,6,Color,Red,,1,,,,,,,,,
2239,variation,H-WRPG3-BLK,"Habit Wrap - Black, Garter",1,0,visible,,"test test",,,taxable,parent,1,17,0,0,,,,,0,,,150,,,,,,,id:2216,,,,,,1,Color,Black,,1,Fastener,Garter,,1,,,,,
2240,variation,H-WRPS3-BLK,"Habit Wrap - Black, String",1,0,visible,,,,,taxable,parent,1,20,0,0,,,,,0,,,150,,,,,,,id:2216,,,,,,2,Color,Black,,1,Fastener,String,,1,,,,,
2241,variation,H-WRPG3-BLU,"Habit Wrap - Blue, Garter",1,0,visible,,,,,taxable,parent,1,18,0,0,,,,,0,,,150,,,,,,,id:2216,,,,,,3,Color,Blue,,1,Fastener,Garter,,1,,,,,
2242,variation,H-WRPS3-BLU,"Habit Wrap - Blue, String",1,0,visible,,,,,taxable,parent,1,19,0,0,,,,,0,,,150,,,,,,,id:2216,,,,,,4,Color,Blue,,1,Fastener,String,,1,,,,,
2243,variation,H-WRPG3-GRN,"Habit Wrap - Green, Garter",1,0,visible,,,,,taxable,parent,1,19,0,0,,,,,0,,,150,,,,,,,id:2216,,,,,,5,Color,Green,,1,Fastener,Garter,,1,,,,,
2244,variation,H-WRPS3-GRN,"Habit Wrap - Green, String",1,0,visible,,,,,taxable,parent,1,20,0,0,,,,,0,,,150,,,,,,,id:2216,,,,,,6,Color,Green,,1,Fastener,String,,1,,,,,
2245,variation,H-WRPG3-PNK,"Habit Wrap - Pink, Garter",1,0,visible,,,,,taxable,parent,1,20,0,0,,,,,0,,,150,,,,,,,id:2216,,,,,,7,Color,Pink,,1,Fastener,Garter,,1,,,,,
2246,variation,H-WRPS3-PNK,"Habit Wrap - Pink, String",1,0,visible,,,,,taxable,parent,1,18,0,0,,,,,0,,,150,,,,,,,id:2216,,,,,,8,Color,Pink,,1,Fastener,String,,1,,,,,
2247,variation,H-WRPG3-ORG,"Habit Wrap - Orange, Garter",1,0,visible,,,,,taxable,parent,1,20,0,0,,,,,0,,,150,,,,,,,id:2216,,,,,,9,Color,Orange,,1,Fastener,Garter,,1,,,,,
2248,variation,H-WRPS3-ORG,"Habit Wrap - Orange, String",1,0,visible,,,,,taxable,parent,1,20,0,0,,,,,0,,,150,,,,,,,id:2216,,,,,,10,Color,Orange,,1,Fastener,String,,1,,,,,
2249,variation,H-WRPG3-RED,"Habit Wrap - Red, Garter",1,0,visible,,,,,taxable,parent,1,20,0,0,,,,,0,,,150,,,,,,,id:2216,,,,,,11,Color,Red,,1,Fastener,Garter,,1,,,,,
2250,variation,H-WRPS3-RED,"Habit Wrap - Red, String",1,0,visible,,,,,taxable,parent,1,18,0,0,,,,,0,,,150,,,,,,,id:2216,,,,,,12,Color,Red,,1,Fastener,String,,1,,,,,
2256,variable,,"Chunky Straw Set",1,0,visible,"<span data-sheets-value=""{&quot;1&quot;:2,&quot;2&quot;:&quot;Our Chunky Set comes with one chunky metal straw in a color of your choice. Enjoy your favorite shakes or pearly drinks with this set that comes with a cleaning brush and in a dishwashing and detergent safe pouch. Each pouch also has an additional pocket to store your used utensils before washing at home.&quot;}"" data-sheets-userformat=""{&quot;2&quot;:9153,&quot;3&quot;:[null,0],&quot;9&quot;:0,&quot;10&quot;:1,&quot;11&quot;:4,&quot;12&quot;:0,&quot;16&quot;:8}"">Our Chunky Set comes with one chunky metal straw in a color of your choice. Enjoy your favorite shakes or pearly drinks with this set that comes with a cleaning brush and in a dishwashing and detergent safe pouch. Each pouch also has an additional pocket to store your used utensils before washing at home.</span>

<div style=""color: #fff; background-color: red; padding: 10px; margin-bottom: 30px; text-align: center;"">This product is currently out of stock. We are accepting pre-orders to be delivered by August 15, 2018. Use the coupon code ""MakeItAHabit"" to avail of FREE SHIPPING for the first 100 customers in Metro Manila.</div>","<strong>Set Inclusions:</strong>

1 pc. Chunky Straw - 12 mm diameter x 21.5 cm height, food-grade stainless steel 304
1 pc. cleaning brush
1 pc. pouch - dishwashing and laundry safe

<strong>You can opt not to buy, and instead, use:</strong>

1. No straw
2. Bamboo straw - lifetime of approximately 3 months, dries slower
3. Spoon for shakes and pearly drinks",,,taxable,,1,200,1,0,0.03,7,0.9,24.5,0,,,,"Reusables, Reusables > Straws",,"Small Pouch","https://www.habit.ph/wp-content/uploads/2018/06/habit-chunkystrawset-black-edited.gif, https://www.habit.ph/wp-content/uploads/2018/06/habit-chunky-combined-1.jpg, https://www.habit.ph/wp-content/uploads/2018/05/habit-pouches.jpg",,,,,,,,,7,Color,"Black, Gold, Rose Gold, Silver, Spectrum",1,1,Pouch,"Black, Blue, Green, Orange, Pink, Red",1,1,,,,,
2266,variation,H-SCH-SBLK-PBLK,"Chunky Straw Set - Black, Black",1,0,visible,,,,,taxable,parent,1,1,1,0,,,,,0,,,135,,,,,,,id:2256,,,,,,1,Color,Black,,1,Pouch,Black,,1,,,,,
2267,variation,H-SCH-SBLK-PBLU,"Chunky Straw Set - Black, Blue",1,0,visible,,,,,taxable,parent,1,3,1,0,,,,,0,,,135,,,,,,,id:2256,,,,,,2,Color,Black,,1,Pouch,Blue,,1,,,,,
2268,variation,H-SCH-SBLK-PGRN,"Chunky Straw Set - Black, Green",1,0,visible,,,,,taxable,parent,1,3,1,0,,,,,0,,,135,,,,,,,id:2256,,,,,,3,Color,Black,,1,Pouch,Green,,1,,,,,
2269,variation,H-SCH-SBLK-PPNK,"Chunky Straw Set - Black, Pink",1,0,visible,,,,,taxable,parent,1,3,1,0,,,,,0,,,135,,,,,,,id:2256,,,,,,4,Color,Black,,1,Pouch,Pink,,1,,,,,
2270,variation,H-SCH-SBLK-PORG,"Chunky Straw Set - Black, Orange",1,0,visible,,,,,taxable,parent,1,3,1,0,,,,,0,,,135,,,,,,,id:2256,,,,,,5,Color,Black,,1,Pouch,Orange,,1,,,,,
2271,variation,H-SCH-SBLK-PRED,"Chunky Straw Set - Black, Red",1,0,visible,,,,,taxable,parent,1,3,1,0,,,,,0,,,135,,,,,,,id:2256,,,,,,6,Color,Black,,1,Pouch,Red,,1,,,,,
2272,variation,H-SCH-SGLD-PBLK,"Chunky Straw Set - Gold, Black",1,0,visible,,,,,taxable,parent,1,3,1,0,,,,,0,,,135,,,,,,,id:2256,,,,,,7,Color,Gold,,1,Pouch,Black,,1,,,,,
2273,variation,H-SCH-SGLD-PBLU,"Chunky Straw Set - Gold, Blue",1,0,visible,,,,,taxable,parent,1,3,1,0,,,,,0,,,135,,,,,,,id:2256,,,,,,8,Color,Gold,,1,Pouch,Blue,,1,,,,,
2274,variation,H-SCH-SGLD-PGRN,"Chunky Straw Set - Gold, Green",1,0,visible,,,,,taxable,parent,1,3,1,0,,,,,0,,,135,,,,,,,id:2256,,,,,,9,Color,Gold,,1,Pouch,Green,,1,,,,,
2275,variation,H-SCH-SGLD-PPNK,"Chunky Straw Set - Gold, Pink",1,0,visible,,,,,taxable,parent,1,3,1,0,,,,,0,,,135,,,,,,,id:2256,,,,,,10,Color,Gold,,1,Pouch,Pink,,1,,,,,
2276,variation,H-SCH-SGLD-PORG,"Chunky Straw Set - Gold, Orange",1,0,visible,,,,,taxable,parent,1,3,1,0,,,,,0,,,135,,,,,,,id:2256,,,,,,11,Color,Gold,,1,Pouch,Orange,,1,,,,,
2277,variation,H-SCH-SGLD-PRED,"Chunky Straw Set - Gold, Red",1,0,visible,,,,,taxable,parent,1,3,1,0,,,,,0,,,135,,,,,,,id:2256,,,,,,12,Color,Gold,,1,Pouch,Red,,1,,,,,
2278,variation,H-SCH-SSPC-PBLK,"Chunky Straw Set - Spectrum, Black",1,0,visible,,,,,taxable,parent,1,2,1,0,,,,,0,,,135,,,,,,,id:2256,,,,,,13,Color,Spectrum,,1,Pouch,Black,,1,,,,,
2279,variation,H-SCH-SSPC-PBLU,"Chunky Straw Set - Spectrum, Blue",1,0,visible,,,,,taxable,parent,1,3,1,0,,,,,0,,,135,,,,,,,id:2256,,,,,,14,Color,Spectrum,,1,Pouch,Blue,,1,,,,,
2280,variation,H-SCH-SSPC-PGRN,"Chunky Straw Set - Spectrum, Green",1,0,visible,,,,,taxable,parent,1,3,1,0,,,,,0,,,135,,,,,,,id:2256,,,,,,15,Color,Spectrum,,1,Pouch,Green,,1,,,,,
2281,variation,H-SCH-SSPC-PPNK,"Chunky Straw Set - Spectrum, Pink",1,0,visible,,,,,taxable,parent,1,3,1,0,,,,,0,,,135,,,,,,,id:2256,,,,,,16,Color,Spectrum,,1,Pouch,Pink,,1,,,,,
2282,variation,H-SCH-SSPC-PORG,"Chunky Straw Set - Spectrum, Orange",1,0,visible,,,,,taxable,parent,1,3,1,0,,,,,0,,,135,,,,,,,id:2256,,,,,,17,Color,Spectrum,,1,Pouch,Orange,,1,,,,,
2283,variation,H-SCH-SSPC-PRED,"Chunky Straw Set - Spectrum, Red",1,0,visible,,,,,taxable,parent,1,3,1,0,,,,,0,,,135,,,,,,,id:2256,,,,,,18,Color,Spectrum,,1,Pouch,Red,,1,,,,,
2284,variation,H-SCH-SROS-PBLK,"Chunky Straw Set - Rose Gold, Black",1,0,visible,,,,,taxable,parent,1,3,1,0,,,,,0,,,135,,,,,,,id:2256,,,,,,19,Color,"Rose Gold",,1,Pouch,Black,,1,,,,,
2285,variation,H-SCH-SROS-PBLU,"Chunky Straw Set - Rose Gold, Blue",1,0,visible,,,,,taxable,parent,1,3,1,0,,,,,0,,,135,,,,,,,id:2256,,,,,,20,Color,"Rose Gold",,1,Pouch,Blue,,1,,,,,
2286,variation,H-SCH-SROS-PGRN,"Chunky Straw Set - Rose Gold, Green",1,0,visible,,,,,taxable,parent,1,3,1,0,,,,,0,,,135,,,,,,,id:2256,,,,,,21,Color,"Rose Gold",,1,Pouch,Green,,1,,,,,
2287,variation,H-SCH-SROS-PPNK,"Chunky Straw Set - Rose Gold, Pink",1,0,visible,,,,,taxable,parent,1,2,1,0,,,,,0,,,135,,,,,,,id:2256,,,,,,22,Color,"Rose Gold",,1,Pouch,Pink,,1,,,,,
2288,variation,H-SCH-SROS-PORG,"Chunky Straw Set - Rose Gold, Orange",1,0,visible,,,,,taxable,parent,1,3,1,0,,,,,0,,,135,,,,,,,id:2256,,,,,,23,Color,"Rose Gold",,1,Pouch,Orange,,1,,,,,
2289,variation,H-SCH-SROS-PRED,"Chunky Straw Set - Rose Gold, Red",1,0,visible,,,,,taxable,parent,1,3,1,0,,,,,0,,,135,,,,,,,id:2256,,,,,,24,Color,"Rose Gold",,1,Pouch,Red,,1,,,,,
2290,variation,H-SCH-SSIL-PBLK,"Chunky Straw Set - Silver, Black",1,0,visible,,,,,taxable,parent,1,2,1,0,,,,,0,,,115,,,,,,,id:2256,,,,,,25,Color,Silver,,1,Pouch,Black,,1,,,,,
2291,variation,H-SCH-SSIL-PBLU,"Chunky Straw Set - Silver, Blue",1,0,visible,,,,,taxable,parent,1,3,1,0,,,,,0,,,115,,,,,,,id:2256,,,,,,26,Color,Silver,,1,Pouch,Blue,,1,,,,,
2292,variation,H-SCH-SSIL-PGRN,"Chunky Straw Set - Silver, Green",1,0,visible,,,,,taxable,parent,1,3,1,0,,,,,0,,,115,,,,,,,id:2256,,,,,,27,Color,Silver,,1,Pouch,Green,,1,,,,,
2293,variation,H-SCH-SSIL-PPNK,"Chunky Straw Set - Silver, Pink",1,0,visible,,,,,taxable,parent,1,3,1,0,,,,,0,,,115,,,,,,,id:2256,,,,,,28,Color,Silver,,1,Pouch,Pink,,1,,,,,
2294,variation,H-SCH-SSIL-PORG,"Chunky Straw Set - Silver, Orange",1,0,visible,,,,,taxable,parent,1,3,1,0,,,,,0,,,115,,,,,,,id:2256,,,,,,29,Color,Silver,,1,Pouch,Orange,,1,,,,,
2295,variation,H-SCH-SSIL-PRED,"Chunky Straw Set - Silver, Red",1,0,visible,,,,,taxable,parent,1,3,1,0,,,,,0,,,115,,,,,,,id:2256,,,,,,30,Color,Silver,,1,Pouch,Red,,1,,,,,
2296,variation,H-SSL-SBLK-PBLK,"Slim Straw Set - Black, Black",1,0,visible,,,,,taxable,parent,1,3,1,0,,,,,0,,,135,,,,,,,id:1988,,,,,,1,Color,Black,,1,Pouch,Black,,1,,,,,
2297,variation,H-SSL-SBLK-PBLU,"Slim Straw Set - Black, Blue",1,0,visible,,,,,taxable,parent,1,3,1,0,,,,,0,,,135,,,,,,,id:1988,,,,,,2,Color,Black,,1,Pouch,Blue,,1,,,,,
2298,variation,H-SSL-SBLK-PGRN,"Slim Straw Set - Black, Green",1,0,visible,,,,,taxable,parent,1,3,1,0,,,,,0,,,135,,,,,,,id:1988,,,,,,3,Color,Black,,1,Pouch,Green,,1,,,,,
2299,variation,H-SSL-SBLK-PPNK,"Slim Straw Set - Black, Pink",1,0,visible,,,,,taxable,parent,1,3,1,0,,,,,0,,,135,,,,,,,id:1988,,,,,,4,Color,Black,,1,Pouch,Pink,,1,,,,,
2300,variation,H-SSL-SBLK-PORG,"Slim Straw Set - Black, Orange",1,0,visible,,,,,taxable,parent,1,3,1,0,,,,,0,,,135,,,,,,,id:1988,,,,,,5,Color,Black,,1,Pouch,Orange,,1,,,,,
2301,variation,H-SSL-SBLK-PRED,"Slim Straw Set - Black, Red",1,0,visible,,,,,taxable,parent,backorder,'-2',1,0,,,,,0,,,135,,,,,,,id:1988,,,,,,6,Color,Black,,1,Pouch,Red,,1,,,,,
2302,variation,H-SSL-SGLD-PBLK,"Slim Straw Set - Gold, Black",1,0,visible,,,,,taxable,parent,1,3,1,0,,,,,0,,,135,,,,,,,id:1988,,,,,,7,Color,Gold,,1,Pouch,Black,,1,,,,,
2303,variation,H-SSL-SGLD-PBLU,"Slim Straw Set - Gold, Blue",1,0,visible,,,,,taxable,parent,1,3,1,0,,,,,0,,,135,,,,,,,id:1988,,,,,,8,Color,Gold,,1,Pouch,Blue,,1,,,,,
2304,variation,H-SSL-SGLD-PGRN,"Slim Straw Set - Gold, Green",1,0,visible,,,,,taxable,parent,1,3,1,0,,,,,0,,,135,,,,,,,id:1988,,,,,,9,Color,Gold,,1,Pouch,Green,,1,,,,,
2305,variation,H-SSL-SGLD-PPNK,"Slim Straw Set - Gold, Pink",1,0,visible,,,,,taxable,parent,1,3,1,0,,,,,0,,,135,,,,,,,id:1988,,,,,,10,Color,Gold,,1,Pouch,Pink,,1,,,,,
2306,variation,H-SSL-SGLD-PORG,"Slim Straw Set - Gold, Orange",1,0,visible,,,,,taxable,parent,1,3,1,0,,,,,0,,,135,,,,,,,id:1988,,,,,,11,Color,Gold,,1,Pouch,Orange,,1,,,,,
2307,variation,H-SSL-SGLD-PRED,"Slim Straw Set - Gold, Red",1,0,visible,,,,,taxable,parent,1,3,1,0,,,,,0,,,135,,,,,,,id:1988,,,,,,12,Color,Gold,,1,Pouch,Red,,1,,,,,
2308,variation,H-SSL-SSPC-PBLK,"Slim Straw Set - Spectrum, Black",1,0,visible,,,,,taxable,parent,1,1,1,0,,,,,0,,,135,,,,,,,id:1988,,,,,,13,Color,Spectrum,,1,Pouch,Black,,1,,,,,
2309,variation,H-SSL-SSPC-PBLU,"Slim Straw Set - Spectrum, Blue",1,0,visible,,,,,taxable,parent,1,2,1,0,,,,,0,,,135,,,,,,,id:1988,,,,,,14,Color,Spectrum,,1,Pouch,Blue,,1,,,,,
2310,variation,H-SSL-SSPC-PGRN,"Slim Straw Set - Spectrum, Green",1,0,visible,,,,,taxable,parent,1,3,1,0,,,,,0,,,135,,,,,,,id:1988,,,,,,15,Color,Spectrum,,1,Pouch,Green,,1,,,,,
2311,variation,H-SSL-SSPC-PPNK,"Slim Straw Set - Spectrum, Pink",1,0,visible,,,,,taxable,parent,1,3,1,0,,,,,0,,,135,,,,,,,id:1988,,,,,,16,Color,Spectrum,,1,Pouch,Pink,,1,,,,,
2312,variation,H-SSL-SSPC-PORG,"Slim Straw Set - Spectrum, Orange",1,0,visible,,,,,taxable,parent,1,1,1,0,,,,,0,,,135,,,,,,,id:1988,,,,,,17,Color,Spectrum,,1,Pouch,Orange,,1,,,,,
2313,variation,H-SSL-SSPC-PRED,"Slim Straw Set - Spectrum, Red",1,0,visible,,,,,taxable,parent,1,3,1,0,,,,,0,,,135,,,,,,,id:1988,,,,,,18,Color,Spectrum,,1,Pouch,Red,,1,,,,,
2314,variation,H-SSL-SROS-PBLK,"Slim Straw Set - Rose Gold, Black",1,0,visible,,,,,taxable,parent,1,1,1,0,,,,,0,,,135,,,,,,,id:1988,,,,,,19,Color,"Rose Gold",,1,Pouch,Black,,1,,,,,
2315,variation,H-SSL-SROS-PBLU,"Slim Straw Set - Rose Gold, Blue",1,0,visible,,,,,taxable,parent,1,3,1,0,,,,,0,,,135,,,,,,,id:1988,,,,,,20,Color,"Rose Gold",,1,Pouch,Blue,,1,,,,,
2316,variation,H-SSL-SROS-PGRN,"Slim Straw Set - Rose Gold, Green",1,0,visible,,,,,taxable,parent,1,3,1,0,,,,,0,,,135,,,,,,,id:1988,,,,,,21,Color,"Rose Gold",,1,Pouch,Green,,1,,,,,
2317,variation,H-SSL-SROS-PPNK,"Slim Straw Set - Rose Gold, Pink",1,0,visible,,,,,taxable,parent,1,2,1,0,,,,,0,,,135,,,,,,,id:1988,,,,,,22,Color,"Rose Gold",,1,Pouch,Pink,,1,,,,,
2318,variation,H-SSL-SROS-PORG,"Slim Straw Set - Rose Gold, Orange",1,0,visible,,,,,taxable,parent,1,3,1,0,,,,,0,,,135,,,,,,,id:1988,,,,,,23,Color,"Rose Gold",,1,Pouch,Orange,,1,,,,,
2319,variation,H-SSL-SROS-PRED,"Slim Straw Set - Rose Gold, Red",1,0,visible,,,,,taxable,parent,1,3,1,0,,,,,0,,,135,,,,,,,id:1988,,,,,,24,Color,"Rose Gold",,1,Pouch,Red,,1,,,,,
2320,variation,H-SSL-SSIL-PBLK,"Slim Straw Set - Silver, Black",1,0,visible,,,,,taxable,parent,1,3,1,0,,,,,0,,,115,,,,,,,id:1988,,,,,,25,Color,Silver,,1,Pouch,Black,,1,,,,,
2321,variation,H-SSL-SSIL-PBLU,"Slim Straw Set - Silver, Blue",1,0,visible,,,,,taxable,parent,backorder,'-2',1,0,,,,,0,,,115,,,,,,,id:1988,,,,,,26,Color,Silver,,1,Pouch,Blue,,1,,,,,
2322,variation,H-SSL-SSIL-PGRN,"Slim Straw Set - Silver, Green",1,0,visible,,,,,taxable,parent,1,2,1,0,,,,,0,,,115,,,,,,,id:1988,,,,,,27,Color,Silver,,1,Pouch,Green,,1,,,,,
2323,variation,H-SSL-SSIL-PPNK,"Slim Straw Set - Silver, Pink",1,0,visible,,,,,taxable,parent,1,3,1,0,,,,,0,,,115,,,,,,,id:1988,,,,,,28,Color,Silver,,1,Pouch,Pink,,1,,,,,
2324,variation,H-SSL-SSIL-PORG,"Slim Straw Set - Silver, Orange",1,0,visible,,,,,taxable,parent,1,3,1,0,,,,,0,,,115,,,,,,,id:1988,,,,,,29,Color,Silver,,1,Pouch,Orange,,1,,,,,
2325,variation,H-SSL-SSIL-PRED,"Slim Straw Set - Silver, Red",1,0,visible,,,,,taxable,parent,1,3,1,0,,,,,0,,,115,,,,,,,id:1988,,,,,,30,Color,Silver,,1,Pouch,Red,,1,,,,,
2327,variable,,"Slim Straw",1,0,visible,"Basic sleek and slim metal straw made of stainless steel","<strong>Product Specifications:</strong>

1 pc. Slim Straw - 6 mm diameter x 21.5 cm height, food-grade stainless steel 304

<strong>You can opt not to buy, and instead, use:</strong>

1. No straw
2. Bamboo straw - lifetime of approximately 3 months, dries slower",,,taxable,,1,100,0,0,0.01,0.06,0.06,21.5,0,,,,"Reusables, Reusables > Straws",,"Small Pouch","https://www.habit.ph/wp-content/uploads/2018/06/habit-slimstraw-silver-edited.gif, https://www.habit.ph/wp-content/uploads/2018/06/habit-slimstraw-gold-edited.jpg, https://www.habit.ph/wp-content/uploads/2018/06/habit-slimstraw-rosegold-edited.jpg, https://www.habit.ph/wp-content/uploads/2018/06/habit-slimstraw-spectrum-edited.jpg, https://www.habit.ph/wp-content/uploads/2018/06/habit-slimstraw-black-edited.jpg",,,,,,,,,8,Color,"Black, Gold, Rose Gold, Silver, Spectrum",1,1,,,,,,,,,
2328,variation,H-SL-BLK,"Slim Straw - Black",1,0,visible,,,,,taxable,parent,1,10,0,0,,,,,0,,,100,,,,https://www.habit.ph/wp-content/uploads/2018/06/habit-slimstraw-black-edited.jpg,,,id:2327,,,,,,1,Color,Black,,1,,,,,,,,,
2329,variation,H-SL-GLD,"Slim Straw - Gold",1,0,visible,,,,,taxable,parent,1,10,0,0,,,,,0,,,100,,,,https://www.habit.ph/wp-content/uploads/2018/06/habit-slimstraw-gold-edited.jpg,,,id:2327,,,,,,2,Color,Gold,,1,,,,,,,,,
2330,variation,H-SL-SPC,"Slim Straw - Spectrum",1,0,visible,,,,,taxable,parent,1,10,0,0,,,,,0,,,100,,,,https://www.habit.ph/wp-content/uploads/2018/06/habit-slimstraw-spectrum-edited.jpg,,,id:2327,,,,,,3,Color,Spectrum,,1,,,,,,,,,
2331,variation,H-SL-ROS,"Slim Straw - Rose Gold",1,0,visible,,,,,taxable,parent,1,10,0,0,,,,,0,,,100,,,,https://www.habit.ph/wp-content/uploads/2018/06/habit-slimstraw-rosegold-edited.jpg,,,id:2327,,,,,,4,Color,"Rose Gold",,1,,,,,,,,,
2332,variation,H-SL-SIL,"Slim Straw - Silver",1,0,visible,,,,,taxable,parent,1,10,0,0,,,,,0,,,80,,,,https://www.habit.ph/wp-content/uploads/2018/06/habit-slimstraw-silver-edited.jpg,,,id:2327,,,,,,5,Color,Silver,,1,,,,,,,,,
2333,variable,,"Chunky Straw",1,0,visible,"Basic chunky metal straw for shakes and pearly drinks, made of stainless steel","<strong>Product Specifications:</strong>

1 pc. Chunky Straw - 12 mm diameter x 21.5 cm height, food-grade stainless steel 304

<strong>You can opt not to buy, and instead, use:</strong>

1. No straw
2. Bamboo straw - lifetime of approximately 3 months, dries slower
3. Spoon for shakes and pearly drinks",,,taxable,,1,100,0,0,0.02,0.12,0.12,21.5,0,,,,"Reusables, Reusables > Straws",,"Small Pouch","https://www.habit.ph/wp-content/uploads/2018/06/habit-chunkystraw-rosegold-edited.gif, https://www.habit.ph/wp-content/uploads/2018/06/habit-chunkystraw-silver-edited.jpg, https://www.habit.ph/wp-content/uploads/2018/06/habit-chunkystraw-spectrum-edited.jpg, https://www.habit.ph/wp-content/uploads/2018/06/habit-blackstraw-black-edited.jpg, https://www.habit.ph/wp-content/uploads/2018/06/habit-chunkystraw-gold-edited-1.jpg",,,,,,,,,9,Color,"Black, Gold, Rose Gold, Silver, Spectrum",1,1,,,,,,,,,
2334,variation,H-CH-BLK,"Chunky Straw - Black",1,0,visible,,,,,taxable,parent,1,10,0,0,,,,,0,,,100,,,,https://www.habit.ph/wp-content/uploads/2018/06/habit-blackstraw-black-edited.jpg,,,id:2333,,,,,,1,Color,Black,,1,,,,,,,,,
2335,variation,H-CH-GLD,"Chunky Straw - Gold",1,0,visible,,,,,taxable,parent,1,10,0,0,,,,,0,,,100,,,,https://www.habit.ph/wp-content/uploads/2018/06/habit-chunkystraw-gold-edited-1.jpg,,,id:2333,,,,,,2,Color,Gold,,1,,,,,,,,,
2336,variation,H-CH-SPC,"Chunky Straw - Spectrum",1,0,visible,,,,,taxable,parent,1,9,0,0,,,,,0,,,100,,,,https://www.habit.ph/wp-content/uploads/2018/06/habit-chunkystraw-spectrum-edited.jpg,,,id:2333,,,,,,3,Color,Spectrum,,1,,,,,,,,,
2337,variation,H-CH-ROS,"Chunky Straw - Rose Gold",1,0,visible,,,,,taxable,parent,1,9,0,0,,,,,0,,,100,,,,https://www.habit.ph/wp-content/uploads/2018/06/habit-chunkystraw-rosegold-edited.jpg,,,id:2333,,,,,,4,Color,"Rose Gold",,1,,,,,,,,,
2338,variation,H-CH-SIL,"Chunky Straw - Silver",1,0,visible,,,,,taxable,parent,1,8,0,0,,,,,0,,,80,,,,https://www.habit.ph/wp-content/uploads/2018/06/habit-chunkystraw-silver-edited.jpg,,,id:2333,,,,,,5,Color,Silver,,1,,,,,,,,,
2355,simple,H-X-BRS,"Cleaning Brush",1,0,visible,"<span data-sheets-value=""{&quot;1&quot;:2,&quot;2&quot;:&quot;Brush that keeps your straws clean and always ready to use&quot;}"" data-sheets-userformat=""{&quot;2&quot;:8969,&quot;3&quot;:[null,0],&quot;6&quot;:{&quot;1&quot;:[{&quot;1&quot;:2,&quot;2&quot;:0,&quot;5&quot;:[null,2,0]},{&quot;1&quot;:0,&quot;2&quot;:0,&quot;3&quot;:3},{&quot;1&quot;:1,&quot;2&quot;:0,&quot;4&quot;:3}]},&quot;11&quot;:0,&quot;12&quot;:0,&quot;16&quot;:8}"">Brush that keeps your straws clean and always ready to use</span>","<strong>Technical Description:</strong>

1 pc. cleaning brush - 12 mm diameter x 21.5 cm height, food-grade stainless steel 304 stem with nylon bristles

<strong>You can opt not to buy, and instead:</strong>

Rinse utensils with dishwashing liquid and water",,,taxable,,1,49,0,1,0.015,0.12,0.12,21.5,0,,,40,"Reusables, Reusables > Straws",,"Small Pouch",https://www.habit.ph/wp-content/uploads/2018/06/habit-brush-edited.gif,,,,,,,,,10,,,,,,,,,,,,,
2356,variable,,"Habit Starter",1,1,visible,"Start reducing your waste with our Habit Starter! This set includes one slim and one chunky metal straw, a brush cleaner, a dishwashing and detergent safe pouch, and a collapsible cup. Each pouch also comes with an additional pocket for your spoon and fork from home.
<div style=""color: #fff; background-color: red; padding: 10px; margin-bottom: 30px; text-align: center;"">This product is currently out of stock. We are accepting pre-orders to be delivered by August 15, 2018. Use the coupon code ""MakeItAHabit"" to avail of FREE SHIPPING for the first 100 customers in Metro Manila.</div>","<strong>Set includes:</strong>

1 pc. Slim Straw - 6 mm diameter x 21.5cm height, food-grade stainless steel 304
1 pc. Chunk Straw - 12 mm diameter x 21.5 cm height, food-grade stainless steel 304
1 pc. cleaning brush - food-grade stainless steel 304 stem with nylon bristles
1 pc. pouch - dishwashing and laundry safe
1 pc. collapsible cup (355 mL/12 oz), for temperatures from -40 to 70 ?C, BPA-free, 100% food-grade silicone

<strong>You can opt not to buy, and instead, use:</strong>

Your own lunchbox complete with utensils and a tumbler you already own",,,taxable,,backorder,0,1,1,0.15,7,0.9,24.5,0,,,,Kits,,"Small Pouch","https://www.habit.ph/wp-content/uploads/2018/06/habit-starter-edited-product.jpg, https://www.habit.ph/wp-content/uploads/2018/05/habit-slim-combined.jpg, https://www.habit.ph/wp-content/uploads/2018/06/habit-chunky-combined-1.jpg, https://www.habit.ph/wp-content/uploads/2018/06/habit-collapsiblecup-all.png, https://www.habit.ph/wp-content/uploads/2018/05/habit-pouches.jpg",,,,,,,,,1,"Straw Color","Black, Gold, Rose Gold, Silver, Spectrum",1,1,"Cup Color","Black, Blue, Green, Orange, Pink, Red",1,1,,Pouch,"Black, Blue, Green, Orange, Pink, Red",1,1
2423,variable,,"Double Straw Set",1,0,visible,"<span data-sheets-value=""{&quot;1&quot;:2,&quot;2&quot;:&quot;Our Double Set comes with one slim and one chunky metal straws with matching colors of your choice. Enjoy your favorite shakes or pearly drinks with this set that comes with a cleaning brush and in a dishwashing and detergent safe pouch. Each pouch also has an additional pocket to store your used utensils before washing at home.&quot;}"" data-sheets-userformat=""{&quot;2&quot;:9153,&quot;3&quot;:[null,0],&quot;9&quot;:0,&quot;10&quot;:1,&quot;11&quot;:4,&quot;12&quot;:0,&quot;16&quot;:8}"">Our Double Set comes with one slim and one chunky metal straw with matching colors of your choice. Enjoy your favorite shakes or pearly drinks with this set that comes with a cleaning brush and in a dishwashing and detergent safe pouch. Each pouch also has an additional pocket to store your used utensils before washing at home.</span>
<div style=""color: #fff; background-color: red; padding: 10px; margin-bottom: 30px; text-align: center;"">This product is currently out of stock. We are accepting pre-orders to be delivered by August 15, 2018. Use the coupon code ""MakeItAHabit"" to avail of FREE SHIPPING for the first 100 customers in Metro Manila.</div>","<strong>Set includes:</strong>

1 pc. Slim Straw - 6 mm diameter x 21.5 cm height, food-grade stainless steel 304
1 pc. Chunky Straw? - 12 mm diameter x 21.5cm height,?food-grade stainless steel 304
1 pc. cleaning brush,?food-grade stainless steel 304 stem with nylon bristles
1 pc. pouch ? dishwashing and laundry safe

<strong>You can opt not to buy, and instead, use:</strong>

<span data-sheets-value=""{&quot;1&quot;:2,&quot;2&quot;:&quot;1. No strawn2. Bamboo straw - lifetime of approximately 3 months, dries slowern3. Spoon for shakes and pearly drinks&quot;}"" data-sheets-userformat=""{&quot;2&quot;:8897,&quot;3&quot;:[null,0],&quot;9&quot;:0,&quot;10&quot;:1,&quot;12&quot;:0,&quot;16&quot;:8}"">1. No straw
2. Bamboo straw - lifetime of approximately 3 months, dries slower
3. Spoon for shakes and pearly drinks</span>",,,taxable,,1,200,1,0,0.03,7,0.9,24.5,0,,,,"Reusables, Reusables > Straws",,"Small Pouch","https://www.habit.ph/wp-content/uploads/2018/07/habit-chunkystrawset-spectrum-edited.gif, https://www.habit.ph/wp-content/uploads/2018/05/habit-slim-combined.jpg, https://www.habit.ph/wp-content/uploads/2018/06/habit-chunky-combined-1.jpg, https://www.habit.ph/wp-content/uploads/2018/05/habit-pouches.jpg",,,,,,,,,5,Color,"Black, Gold, Rose Gold, Silver, Spectrum",1,1,Pouch,"Black, Blue, Green, Orange, Pink, Red",1,1,,,,,
2424,variation,H-DB-SBLK-PBLK,"Double Straw Set - Black, Black",1,0,visible,,,,,taxable,parent,backorder,'-9',1,0,,,,,0,,,200,,,,,,,id:2423,,,,,,1,Color,Black,,1,Pouch,Black,,1,,,,,
2425,variation,H-DB-SBLK-PBLU,"Double Straw Set - Black, Blue",1,0,visible,,,,,taxable,parent,backorder,0,1,0,,,,,0,,,200,,,,,,,id:2423,,,,,,2,Color,Black,,1,Pouch,Blue,,1,,,,,
2426,variation,H-DB-SBLK-PGRN,"Double Straw Set - Black, Green",1,0,visible,,,,,taxable,parent,1,5,1,0,,,,,0,,,200,,,,,,,id:2423,,,,,,3,Color,Black,,1,Pouch,Green,,1,,,,,
2427,variation,H-DB-SBLK-PPNK,"Double Straw Set - Black, Pink",1,0,visible,,,,,taxable,parent,1,5,1,0,,,,,0,,,200,,,,,,,id:2423,,,,,,4,Color,Black,,1,Pouch,Pink,,1,,,,,
2428,variation,H-DB-SBLK-PORG,"Double Straw Set - Black, Orange",1,0,visible,,,,,taxable,parent,1,4,1,0,,,,,0,,,200,,,,,,,id:2423,,,,,,5,Color,Black,,1,Pouch,Orange,,1,,,,,
2429,variation,H-DB-SBLK-PRED,"Double Straw Set - Black, Red",1,0,visible,,,,,taxable,parent,backorder,0,1,0,,,,,0,,,200,,,,,,,id:2423,,,,,,6,Color,Black,,1,Pouch,Red,,1,,,,,
2430,variation,H-DB-SGLD-PBLK,"Double Straw Set - Gold, Black",1,0,visible,,,,,taxable,parent,backorder,0,1,0,,,,,0,,,200,,,,,,,id:2423,,,,,,7,Color,Gold,,1,Pouch,Black,,1,,,,,
2431,variation,H-DB-SGLD-PBLU,"Double Straw Set - Gold, Blue",1,0,visible,,,,,taxable,parent,1,5,1,0,,,,,0,,,200,,,,,,,id:2423,,,,,,8,Color,Gold,,1,Pouch,Blue,,1,,,,,
2432,variation,H-DB-SGLD-PGRN,"Double Straw Set - Gold, Green",1,0,visible,,,,,taxable,parent,1,5,1,0,,,,,0,,,200,,,,,,,id:2423,,,,,,9,Color,Gold,,1,Pouch,Green,,1,,,,,
2433,variation,H-DB-SGLD-PPNK,"Double Straw Set - Gold, Pink",1,0,visible,,,,,taxable,parent,1,2,1,0,,,,,0,,,200,,,,,,,id:2423,,,,,,10,Color,Gold,,1,Pouch,Pink,,1,,,,,
2434,variation,H-DB-SGLD-PORG,"Double Straw Set - Gold, Orange",1,0,visible,,,,,taxable,parent,1,5,1,0,,,,,0,,,200,,,,,,,id:2423,,,,,,11,Color,Gold,,1,Pouch,Orange,,1,,,,,
2435,variation,H-DB-SGLD-PRED,"Double Straw Set - Gold, Red",1,0,visible,,,,,taxable,parent,1,4,1,0,,,,,0,,,200,,,,,,,id:2423,,,,,,12,Color,Gold,,1,Pouch,Red,,1,,,,,
2436,variation,H-DB-SSPC-PBLK,"Double Straw Set - Spectrum, Black",1,0,visible,,,,,taxable,parent,backorder,'-3',1,0,,,,,0,,,200,,,,,,,id:2423,,,,,,13,Color,Spectrum,,1,Pouch,Black,,1,,,,,
2437,variation,H-DB-SSPC-PBLU,"Double Straw Set - Spectrum, Blue",1,0,visible,,,,,taxable,parent,backorder,'-2',1,0,,,,,0,,,200,,,,,,,id:2423,,,,,,14,Color,Spectrum,,1,Pouch,Blue,,1,,,,,
2438,variation,H-DB-SSPC-PGRN,"Double Straw Set - Spectrum, Green",1,0,visible,,,,,taxable,parent,1,3,1,0,,,,,0,,,200,,,,,,,id:2423,,,,,,15,Color,Spectrum,,1,Pouch,Green,,1,,,,,
2439,variation,H-DB-SSPC-PPNK,"Double Straw Set - Spectrum, Pink",1,0,visible,,,,,taxable,parent,backorder,'-2',1,0,,,,,0,,,200,,,,,,,id:2423,,,,,,16,Color,Spectrum,,1,Pouch,Pink,,1,,,,,
2440,variation,H-DB-SSPC-PORG,"Double Straw Set - Spectrum, Orange",1,0,visible,,,,,taxable,parent,1,5,1,0,,,,,0,,,200,,,,,,,id:2423,,,,,,17,Color,Spectrum,,1,Pouch,Orange,,1,,,,,
2441,variation,H-DB-SSPC-PRED,"Double Straw Set - Spectrum, Red",1,0,visible,,,,,taxable,parent,1,3,1,0,,,,,0,,,200,,,,,,,id:2423,,,,,,18,Color,Spectrum,,1,Pouch,Red,,1,,,,,
2442,variation,H-DB-SROS-PBLK,"Double Straw Set - Rose Gold, Black",1,0,visible,,,,,taxable,parent,1,11,1,0,,,,,0,,,200,,,,,,,id:2423,,,,,,19,Color,"Rose Gold",,1,Pouch,Black,,1,,,,,
2443,variation,H-DB-SROS-PBLU,"Double Straw Set - Rose Gold, Blue",1,0,visible,,,,,taxable,parent,1,1,1,0,,,,,0,,,200,,,,,,,id:2423,,,,,,20,Color,"Rose Gold",,1,Pouch,Blue,,1,,,,,
2444,variation,H-DB-SROS-PGRN,"Double Straw Set - Rose Gold, Green",1,0,visible,,,,,taxable,parent,1,5,1,0,,,,,0,,,200,,,,,,,id:2423,,,,,,21,Color,"Rose Gold",,1,Pouch,Green,,1,,,,,
2445,variation,H-DB-SROS-PPNK,"Double Straw Set - Rose Gold, Pink",1,0,visible,,,,,taxable,parent,backorder,'-2',1,0,,,,,0,,,200,,,,,,,id:2423,,,,,,22,Color,"Rose Gold",,1,Pouch,Pink,,1,,,,,
2446,variation,H-DB-SROS-PORG,"Double Straw Set - Rose Gold, Orange",1,0,visible,,,,,taxable,parent,1,5,1,0,,,,,0,,,200,,,,,,,id:2423,,,,,,23,Color,"Rose Gold",,1,Pouch,Orange,,1,,,,,
2447,variation,H-DB-SROS-PRED,"Double Straw Set - Rose Gold, Red",1,0,visible,,,,,taxable,parent,1,3,1,0,,,,,0,,,200,,,,,,,id:2423,,,,,,24,Color,"Rose Gold",,1,Pouch,Red,,1,,,,,
2448,variation,H-DB-SSIL-PBLK,"Double Straw Set - Silver, Black",1,0,visible,,,,,taxable,parent,backorder,'-7',1,0,,,,,0,,,180,,,,,,,id:2423,,,,,,25,Color,Silver,,1,Pouch,Black,,1,,,,,
2449,variation,H-DB-SSIL-PBLU,"Double Straw Set - Silver, Blue",1,0,visible,,,,,taxable,parent,backorder,'-1',1,0,,,,,0,,,180,,,,,,,id:2423,,,,,,26,Color,Silver,,1,Pouch,Blue,,1,,,,,
2450,variation,H-DB-SSIL-PGRN,"Double Straw Set - Silver, Green",1,0,visible,,,,,taxable,parent,1,3,1,0,,,,,0,,,180,,,,,,,id:2423,,,,,,27,Color,Silver,,1,Pouch,Green,,1,,,,,
2451,variation,H-DB-SSIL-PPNK,"Double Straw Set - Silver, Pink",1,0,visible,,,,,taxable,parent,1,4,1,0,,,,,0,,,180,,,,,,,id:2423,,,,,,28,Color,Silver,,1,Pouch,Pink,,1,,,,,
2452,variation,H-DB-SSIL-PORG,"Double Straw Set - Silver, Orange",1,0,visible,,,,,taxable,parent,1,5,1,0,,,,,0,,,180,,,,,,,id:2423,,,,,,29,Color,Silver,,1,Pouch,Orange,,1,,,,,
2453,variation,H-DB-SSIL-PRED,"Double Straw Set - Silver, Red",1,0,visible,,,,,taxable,parent,1,3,1,0,,,,,0,,,180,,,,,,,id:2423,,,,,,30,Color,Silver,,1,Pouch,Red,,1,,,,,
3101,variation,H-START-SBLK-CBLK-PBLK,"Habit Starter",1,0,visible,,,,,taxable,parent,backorder,'-6',1,1,,,,,0,,,450,,,,,,,id:2356,,,,,,130,"Straw Color",Black,,1,"Cup Color",Black,,1,,Pouch,Black,,1
3102,variation,H-START-SBLK-CBLK-PBLU,"Habit Starter",1,0,visible,,,,,taxable,parent,backorder,0,1,1,,,,,0,,,450,,,,,,,id:2356,,,,,,131,"Straw Color",Black,,1,"Cup Color",Black,,1,,Pouch,Blue,,1
3103,variation,H-START-SBLK-CBLK-PGRN,"Habit Starter",1,0,visible,,,,,taxable,parent,backorder,0,1,1,,,,,0,,,450,,,,,,,id:2356,,,,,,132,"Straw Color",Black,,1,"Cup Color",Black,,1,,Pouch,Green,,1
3104,variation,H-START-SBLK-CBLK-PORG,"Habit Starter",1,0,visible,,,,,taxable,parent,backorder,0,1,1,,,,,0,,,450,,,,,,,id:2356,,,,,,133,"Straw Color",Black,,1,"Cup Color",Black,,1,,Pouch,Orange,,1
3105,variation,H-START-SBLK-CBLK-PPNK,"Habit Starter",1,0,visible,,,,,taxable,parent,backorder,0,1,1,,,,,0,,,450,,,,,,,id:2356,,,,,,134,"Straw Color",Black,,1,"Cup Color",Black,,1,,Pouch,Pink,,1
3106,variation,H-START-SBLK-CBLK-PRED,"Habit Starter",1,0,visible,,,,,taxable,parent,backorder,0,1,1,,,,,0,,,450,,,,,,,id:2356,,,,,,135,"Straw Color",Black,,1,"Cup Color",Black,,1,,Pouch,Red,,1
3107,variation,H-START-SBLK-CBLU-PBLK,"Habit Starter",1,0,visible,,,,,taxable,parent,backorder,0,1,1,,,,,0,,,450,,,,,,,id:2356,,,,,,136,"Straw Color",Black,,1,"Cup Color",Blue,,1,,Pouch,Black,,1
3108,variation,H-START-SBLK-CBLU-PBLU,"Habit Starter",1,0,visible,,,,,taxable,parent,backorder,0,1,1,,,,,0,,,450,,,,,,,id:2356,,,,,,137,"Straw Color",Black,,1,"Cup Color",Blue,,1,,Pouch,Blue,,1
3109,variation,H-START-SBLK-CBLU-PGRN,"Habit Starter",1,0,visible,,,,,taxable,parent,backorder,0,1,1,,,,,0,,,450,,,,,,,id:2356,,,,,,138,"Straw Color",Black,,1,"Cup Color",Blue,,1,,Pouch,Green,,1
3110,variation,H-START-SBLK-CBLU-PORG,"Habit Starter",1,0,visible,,,,,taxable,parent,backorder,0,1,1,,,,,0,,,450,,,,,,,id:2356,,,,,,139,"Straw Color",Black,,1,"Cup Color",Blue,,1,,Pouch,Orange,,1
3111,variation,H-START-SBLK-CBLU-PPNK,"Habit Starter",1,0,visible,,,,,taxable,parent,backorder,0,1,1,,,,,0,,,450,,,,,,,id:2356,,,,,,140,"Straw Color",Black,,1,"Cup Color",Blue,,1,,Pouch,Pink,,1
3112,variation,H-START-SBLK-CBLU-PRED,"Habit Starter",1,0,visible,,,,,taxable,parent,backorder,0,1,1,,,,,0,,,450,,,,,,,id:2356,,,,,,141,"Straw Color",Black,,1,"Cup Color",Blue,,1,,Pouch,Red,,1
3113,variation,H-START-SBLK-CGRN-PBLK,"Habit Starter",1,0,visible,,,,,taxable,parent,backorder,0,1,1,,,,,0,,,450,,,,,,,id:2356,,,,,,142,"Straw Color",Black,,1,"Cup Color",Green,,1,,Pouch,Black,,1
3114,variation,H-START-SBLK-CGRN-PBLU,"Habit Starter",1,0,visible,,,,,taxable,parent,backorder,0,1,1,,,,,0,,,450,,,,,,,id:2356,,,,,,143,"Straw Color",Black,,1,"Cup Color",Green,,1,,Pouch,Blue,,1
3115,variation,H-START-SBLK-CGRN-PGRN,"Habit Starter",1,0,visible,,,,,taxable,parent,backorder,0,1,1,,,,,0,,,450,,,,,,,id:2356,,,,,,144,"Straw Color",Black,,1,"Cup Color",Green,,1,,Pouch,Green,,1
3116,variation,H-START-SBLK-CGRN-PORG,"Habit Starter",1,0,visible,,,,,taxable,parent,backorder,0,1,1,,,,,0,,,450,,,,,,,id:2356,,,,,,145,"Straw Color",Black,,1,"Cup Color",Green,,1,,Pouch,Orange,,1
3117,variation,H-START-SBLK-CGRN-PPNK,"Habit Starter",1,0,visible,,,,,taxable,parent,backorder,0,1,1,,,,,0,,,450,,,,,,,id:2356,,,,,,146,"Straw Color",Black,,1,"Cup Color",Green,,1,,Pouch,Pink,,1
3118,variation,H-START-SBLK-CGRN-PRED,"Habit Starter",1,0,visible,,,,,taxable,parent,backorder,0,1,1,,,,,0,,,450,,,,,,,id:2356,,,,,,147,"Straw Color",Black,,1,"Cup Color",Green,,1,,Pouch,Red,,1
3119,variation,H-START-SBLK-CORG-PBLK,"Habit Starter",1,0,visible,,,,,taxable,parent,backorder,0,1,1,,,,,0,,,450,,,,,,,id:2356,,,,,,148,"Straw Color",Black,,1,"Cup Color",Orange,,1,,Pouch,Black,,1
3120,variation,H-START-SBLK-CORG-PBLU,"Habit Starter",1,0,visible,,,,,taxable,parent,backorder,0,1,1,,,,,0,,,450,,,,,,,id:2356,,,,,,149,"Straw Color",Black,,1,"Cup Color",Orange,,1,,Pouch,Blue,,1
3121,variation,H-START-SBLK-CORG-PGRN,"Habit Starter",1,0,visible,,,,,taxable,parent,backorder,0,1,1,,,,,0,,,450,,,,,,,id:2356,,,,,,150,"Straw Color",Black,,1,"Cup Color",Orange,,1,,Pouch,Green,,1
3122,variation,H-START-SBLK-CORG-PORG,"Habit Starter",1,0,visible,,,,,taxable,parent,backorder,0,1,1,,,,,0,,,450,,,,,,,id:2356,,,,,,151,"Straw Color",Black,,1,"Cup Color",Orange,,1,,Pouch,Orange,,1
3123,variation,H-START-SBLK-CORG-PPNK,"Habit Starter",1,0,visible,,,,,taxable,parent,backorder,0,1,1,,,,,0,,,450,,,,,,,id:2356,,,,,,152,"Straw Color",Black,,1,"Cup Color",Orange,,1,,Pouch,Pink,,1
3124,variation,H-START-SBLK-CORG-PRED,"Habit Starter",1,0,visible,,,,,taxable,parent,backorder,0,1,1,,,,,0,,,450,,,,,,,id:2356,,,,,,153,"Straw Color",Black,,1,"Cup Color",Orange,,1,,Pouch,Red,,1
3125,variation,H-START-SBLK-CPNK-PBLK,"Habit Starter",1,0,visible,,,,,taxable,parent,backorder,0,1,1,,,,,0,,,450,,,,,,,id:2356,,,,,,154,"Straw Color",Black,,1,"Cup Color",Pink,,1,,Pouch,Black,,1
3126,variation,H-START-SBLK-CPNK-PBLU,"Habit Starter",1,0,visible,,,,,taxable,parent,backorder,0,1,1,,,,,0,,,450,,,,,,,id:2356,,,,,,155,"Straw Color",Black,,1,"Cup Color",Pink,,1,,Pouch,Blue,,1
3127,variation,H-START-SBLK-CPNK-PGRN,"Habit Starter",1,0,visible,,,,,taxable,parent,backorder,0,1,1,,,,,0,,,450,,,,,,,id:2356,,,,,,156,"Straw Color",Black,,1,"Cup Color",Pink,,1,,Pouch,Green,,1
3128,variation,H-START-SBLK-CPNK-PORG,"Habit Starter",1,0,visible,,,,,taxable,parent,backorder,0,1,1,,,,,0,,,450,,,,,,,id:2356,,,,,,157,"Straw Color",Black,,1,"Cup Color",Pink,,1,,Pouch,Orange,,1
3129,variation,H-START-SBLK-CPNK-PPNK,"Habit Starter",1,0,visible,,,,,taxable,parent,backorder,0,1,1,,,,,0,,,450,,,,,,,id:2356,,,,,,158,"Straw Color",Black,,1,"Cup Color",Pink,,1,,Pouch,Pink,,1
3130,variation,H-START-SBLK-CPNK-PRED,"Habit Starter",1,0,visible,,,,,taxable,parent,backorder,0,1,1,,,,,0,,,450,,,,,,,id:2356,,,,,,159,"Straw Color",Black,,1,"Cup Color",Pink,,1,,Pouch,Red,,1
3131,variation,H-START-SBLK-CRED-PBLK,"Habit Starter",1,0,visible,,,,,taxable,parent,backorder,'-1',1,1,,,,,0,,,450,,,,,,,id:2356,,,,,,160,"Straw Color",Black,,1,"Cup Color",Red,,1,,Pouch,Black,,1
3132,variation,H-START-SBLK-CRED-PBLU,"Habit Starter",1,0,visible,,,,,taxable,parent,backorder,0,1,1,,,,,0,,,450,,,,,,,id:2356,,,,,,161,"Straw Color",Black,,1,"Cup Color",Red,,1,,Pouch,Blue,,1
3133,variation,H-START-SBLK-CRED-PGRN,"Habit Starter",1,0,visible,,,,,taxable,parent,backorder,0,1,1,,,,,0,,,450,,,,,,,id:2356,,,,,,162,"Straw Color",Black,,1,"Cup Color",Red,,1,,Pouch,Green,,1
3134,variation,H-START-SBLK-CRED-PORG,"Habit Starter",1,0,visible,,,,,taxable,parent,backorder,0,1,1,,,,,0,,,450,,,,,,,id:2356,,,,,,163,"Straw Color",Black,,1,"Cup Color",Red,,1,,Pouch,Orange,,1
3135,variation,H-START-SBLK-CRED-PPNK,"Habit Starter",1,0,visible,,,,,taxable,parent,backorder,0,1,1,,,,,0,,,450,,,,,,,id:2356,,,,,,164,"Straw Color",Black,,1,"Cup Color",Red,,1,,Pouch,Pink,,1
3136,variation,H-START-SBLK-CRED-PRED,"Habit Starter",1,0,visible,,,,,taxable,parent,backorder,'-1',1,1,,,,,0,,,450,,,,,,,id:2356,,,,,,165,"Straw Color",Black,,1,"Cup Color",Red,,1,,Pouch,Red,,1
3137,variation,H-START-SGLD-CBLK-PBLK,"Habit Starter",1,0,visible,,,,,taxable,parent,backorder,0,1,1,,,,,0,,,450,,,,,,,id:2356,,,,,,166,"Straw Color",Gold,,1,"Cup Color",Black,,1,,Pouch,Black,,1
3138,variation,H-START-SGLD-CBLK-PBLU,"Habit Starter",1,0,visible,,,,,taxable,parent,backorder,0,1,1,,,,,0,,,450,,,,,,,id:2356,,,,,,167,"Straw Color",Gold,,1,"Cup Color",Black,,1,,Pouch,Blue,,1
3139,variation,H-START-SGLD-CBLK-PGRN,"Habit Starter",1,0,visible,,,,,taxable,parent,backorder,0,1,1,,,,,0,,,450,,,,,,,id:2356,,,,,,168,"Straw Color",Gold,,1,"Cup Color",Black,,1,,Pouch,Green,,1
3140,variation,H-START-SGLD-CBLK-PORG,"Habit Starter",1,0,visible,,,,,taxable,parent,backorder,0,1,1,,,,,0,,,450,,,,,,,id:2356,,,,,,169,"Straw Color",Gold,,1,"Cup Color",Black,,1,,Pouch,Orange,,1
3141,variation,H-START-SGLD-CBLK-PPNK,"Habit Starter",1,0,visible,,,,,taxable,parent,backorder,0,1,1,,,,,0,,,450,,,,,,,id:2356,,,,,,170,"Straw Color",Gold,,1,"Cup Color",Black,,1,,Pouch,Pink,,1
3142,variation,H-START-SGLD-CBLK-PRED,"Habit Starter",1,0,visible,,,,,taxable,parent,backorder,0,1,1,,,,,0,,,450,,,,,,,id:2356,,,,,,171,"Straw Color",Gold,,1,"Cup Color",Black,,1,,Pouch,Red,,1
3143,variation,H-START-SGLD-CBLU-PBLK,"Habit Starter",1,0,visible,,,,,taxable,parent,backorder,0,1,1,,,,,0,,,450,,,,,,,id:2356,,,,,,172,"Straw Color",Gold,,1,"Cup Color",Blue,,1,,Pouch,Black,,1
3144,variation,H-START-SGLD-CBLU-PBLU,"Habit Starter",1,0,visible,,,,,taxable,parent,backorder,0,1,1,,,,,0,,,450,,,,,,,id:2356,,,,,,173,"Straw Color",Gold,,1,"Cup Color",Blue,,1,,Pouch,Blue,,1
3145,variation,H-START-SGLD-CBLU-PGRN,"Habit Starter",1,0,visible,,,,,taxable,parent,backorder,0,1,1,,,,,0,,,450,,,,,,,id:2356,,,,,,174,"Straw Color",Gold,,1,"Cup Color",Blue,,1,,Pouch,Green,,1
3146,variation,H-START-SGLD-CBLU-PORG,"Habit Starter",1,0,visible,,,,,taxable,parent,backorder,0,1,1,,,,,0,,,450,,,,,,,id:2356,,,,,,175,"Straw Color",Gold,,1,"Cup Color",Blue,,1,,Pouch,Orange,,1
3147,variation,H-START-SGLD-CBLU-PPNK,"Habit Starter",1,0,visible,,,,,taxable,parent,backorder,0,1,1,,,,,0,,,450,,,,,,,id:2356,,,,,,176,"Straw Color",Gold,,1,"Cup Color",Blue,,1,,Pouch,Pink,,1
3148,variation,H-START-SGLD-CBLU-PRED,"Habit Starter",1,0,visible,,,,,taxable,parent,backorder,0,1,1,,,,,0,,,450,,,,,,,id:2356,,,,,,177,"Straw Color",Gold,,1,"Cup Color",Blue,,1,,Pouch,Red,,1
3149,variation,H-START-SGLD-CGRN-PBLK,"Habit Starter",1,0,visible,,,,,taxable,parent,backorder,0,1,1,,,,,0,,,450,,,,,,,id:2356,,,,,,178,"Straw Color",Gold,,1,"Cup Color",Green,,1,,Pouch,Black,,1
3150,variation,H-START-SGLD-CGRN-PBLU,"Habit Starter",1,0,visible,,,,,taxable,parent,backorder,0,1,1,,,,,0,,,450,,,,,,,id:2356,,,,,,179,"Straw Color",Gold,,1,"Cup Color",Green,,1,,Pouch,Blue,,1
3151,variation,H-START-SGLD-CGRN-PGRN,"Habit Starter",1,0,visible,,,,,taxable,parent,backorder,'-2',1,1,,,,,0,,,450,,,,,,,id:2356,,,,,,180,"Straw Color",Gold,,1,"Cup Color",Green,,1,,Pouch,Green,,1
3152,variation,H-START-SGLD-CGRN-PORG,"Habit Starter",1,0,visible,,,,,taxable,parent,backorder,0,1,1,,,,,0,,,450,,,,,,,id:2356,,,,,,79,"Straw Color",Gold,,1,"Cup Color",Green,,1,,Pouch,Orange,,1
3153,variation,H-START-SGLD-CGRN-PPNK,"Habit Starter",1,0,visible,,,,,taxable,parent,backorder,0,1,1,,,,,0,,,450,,,,,,,id:2356,,,,,,80,"Straw Color",Gold,,1,"Cup Color",Green,,1,,Pouch,Pink,,1
3154,variation,H-START-SGLD-CGRN-PRED,"Habit Starter",1,0,visible,,,,,taxable,parent,backorder,0,1,1,,,,,0,,,450,,,,,,,id:2356,,,,,,81,"Straw Color",Gold,,1,"Cup Color",Green,,1,,Pouch,Red,,1
3155,variation,H-START-SGLD-CORG-PBLK,"Habit Starter",1,0,visible,,,,,taxable,parent,backorder,0,1,1,,,,,0,,,450,,,,,,,id:2356,,,,,,82,"Straw Color",Gold,,1,"Cup Color",Orange,,1,,Pouch,Black,,1
3156,variation,H-START-SGLD-CORG-PBLU,"Habit Starter",1,0,visible,,,,,taxable,parent,backorder,0,1,1,,,,,0,,,450,,,,,,,id:2356,,,,,,83,"Straw Color",Gold,,1,"Cup Color",Orange,,1,,Pouch,Blue,,1
3157,variation,H-START-SGLD-CORG-PGRN,"Habit Starter",1,0,visible,,,,,taxable,parent,backorder,0,1,1,,,,,0,,,450,,,,,,,id:2356,,,,,,84,"Straw Color",Gold,,1,"Cup Color",Orange,,1,,Pouch,Green,,1
3158,variation,H-START-SGLD-CORG-PORG,"Habit Starter",1,0,visible,,,,,taxable,parent,backorder,'-1',1,1,,,,,0,,,450,,,,,,,id:2356,,,,,,85,"Straw Color",Gold,,1,"Cup Color",Orange,,1,,Pouch,Orange,,1
3159,variation,H-START-SGLD-CORG-PPNK,"Habit Starter",1,0,visible,,,,,taxable,parent,backorder,0,1,1,,,,,0,,,450,,,,,,,id:2356,,,,,,86,"Straw Color",Gold,,1,"Cup Color",Orange,,1,,Pouch,Pink,,1
3160,variation,H-START-SGLD-CORG-PRED,"Habit Starter",1,0,visible,,,,,taxable,parent,backorder,0,1,1,,,,,0,,,450,,,,,,,id:2356,,,,,,87,"Straw Color",Gold,,1,"Cup Color",Orange,,1,,Pouch,Red,,1
3161,variation,H-START-SGLD-CPNK-PBLK,"Habit Starter",1,0,visible,,,,,taxable,parent,backorder,0,1,1,,,,,0,,,450,,,,,,,id:2356,,,,,,88,"Straw Color",Gold,,1,"Cup Color",Pink,,1,,Pouch,Black,,1
3162,variation,H-START-SGLD-CPNK-PBLU,"Habit Starter",1,0,visible,,,,,taxable,parent,backorder,0,1,1,,,,,0,,,450,,,,,,,id:2356,,,,,,89,"Straw Color",Gold,,1,"Cup Color",Pink,,1,,Pouch,Blue,,1
3163,variation,H-START-SGLD-CPNK-PGRN,"Habit Starter",1,0,visible,,,,,taxable,parent,backorder,0,1,1,,,,,0,,,450,,,,,,,id:2356,,,,,,90,"Straw Color",Gold,,1,"Cup Color",Pink,,1,,Pouch,Green,,1
3164,variation,H-START-SGLD-CPNK-PORG,"Habit Starter",1,0,visible,,,,,taxable,parent,backorder,0,1,1,,,,,0,,,450,,,,,,,id:2356,,,,,,91,"Straw Color",Gold,,1,"Cup Color",Pink,,1,,Pouch,Orange,,1
3165,variation,H-START-SGLD-CPNK-PPNK,"Habit Starter",1,0,visible,,,,,taxable,parent,backorder,0,1,1,,,,,0,,,450,,,,,,,id:2356,,,,,,92,"Straw Color",Gold,,1,"Cup Color",Pink,,1,,Pouch,Pink,,1
3166,variation,H-START-SGLD-CPNK-PRED,"Habit Starter",1,0,visible,,,,,taxable,parent,backorder,0,1,1,,,,,0,,,450,,,,,,,id:2356,,,,,,93,"Straw Color",Gold,,1,"Cup Color",Pink,,1,,Pouch,Red,,1
3167,variation,H-START-SGLD-CRED-PBLK,"Habit Starter",1,0,visible,,,,,taxable,parent,backorder,0,1,1,,,,,0,,,450,,,,,,,id:2356,,,,,,94,"Straw Color",Gold,,1,"Cup Color",Red,,1,,Pouch,Black,,1
3168,variation,H-START-SGLD-CRED-PBLU,"Habit Starter",1,0,visible,,,,,taxable,parent,backorder,0,1,1,,,,,0,,,450,,,,,,,id:2356,,,,,,95,"Straw Color",Gold,,1,"Cup Color",Red,,1,,Pouch,Blue,,1
3169,variation,H-START-SGLD-CRED-PGRN,"Habit Starter",1,0,visible,,,,,taxable,parent,backorder,0,1,1,,,,,0,,,450,,,,,,,id:2356,,,,,,96,"Straw Color",Gold,,1,"Cup Color",Red,,1,,Pouch,Green,,1
3170,variation,H-START-SGLD-CRED-PORG,"Habit Starter",1,0,visible,,,,,taxable,parent,backorder,0,1,1,,,,,0,,,450,,,,,,,id:2356,,,,,,97,"Straw Color",Gold,,1,"Cup Color",Red,,1,,Pouch,Orange,,1
